African vegetables amino acid & exploratory analysis
…
# Combine the two data sets
df.AIV = df.inj.conc %>% left_join(df.mass, by = "Name")

# tidy up
df.AIV.tidy =  df.AIV %>% # 
  gather(amino.acids, key = compounds, value = inj.conc) %>% # gather compounds
  # content in mg / 100 g dry sample
  # x 100 dil factor x 10 mL, convert to mg compound, then normalized by sample mass to 100 g DW
  mutate(content = inj.conc * (100 * 10) /1000/1000 / `Mass (mg)` * 1000 * 100,
         Category = factor(Category, levels = c("Nightshade", "Amaranth", "Spider plant", "Mustard"),
                           ordered = T))
df.AIV.tidy

## # A tibble: 11,424 x 26
##    Name  `Data File` Category Species Cultivar `storage packs` `sample name` `Plot No.` Harvest Season Site  Rep  
##    <chr> <chr>       <ord>    <chr>   <chr>    <chr>           <chr>         <chr>      <chr>   <chr>  <chr> <chr>
##  1 A_1   A_1.d       Amaranth Amaran… UG-AM-40 A_A             -             1          1       3      Turbo 1    
##  2 A_2   A_2.d       Amaranth A. cru… AC-45    A_A             -             2          1       3      Turbo 1    
##  3 A_3   A_3.d       Amaranth -       Commerc… A_A             -             3          1       3      Turbo 1    
##  4 A_4   A_4.d       Amaranth A. hyp… AH-TL    A_A             -             4          1       3      Turbo 1    
##  5 A_5   A_5.d       Amaranth -       Local M… A_A             -             5          1       3      Turbo 1    
##  6 A_6   A_6.d       Amaranth Amaran… Ex-Zan   A_A             -             6          1       3      Turbo 1    
##  7 A_7   A_7.d       Amaranth A. tri… RUAM24   A_A             -             7          1       3      Turbo 1    
##  8 A_8   A_8.d       Amaranth A. cru… MADIIRA… A_A             -             8          1       3      Turbo 1    
##  9 A_9   A_9.d       Amaranth A. cru… MADIIRA… A_A             -             9          1       3      Turbo 1    
## 10 A_10  A_10.d      Amaranth A. cru… AC-NL    A_A             -             10         1       3      Turbo 1    
## # … with 11,414 more rows, and 14 more variables: `Mass (mg)` <dbl>, Year <dbl>, `Data weighed` <chr>, `Note1_Moldy
## #   status` <chr>, `Note2_harvest specific date` <chr>, Note3_sites <chr>, `Note4_missing row` <chr>, `Note5_Single
## #   Reps` <chr>, Note6_fluffy <chr>, `Note7_label missing` <chr>, Note8_Color <chr>, compounds <chr>, inj.conc <dbl>,
## #   content <dbl>
…
6.3.2 Loadings

mat.PC.var.correlation = diag(content.scaled.covarianceMatrix) %>% 
  diag() %*% # for standardized input matrix, this diagnol matrix is essentail identical matrix
  eigen.vectors %*% 
  diag(eigen.values %>% sqrt())
# convert to tibble format. This is the correlation matrix of amino acids with PC's!
df.PC.var.correlation = mat.PC.var.correlation[, 1:2] %>% 
  as_tibble() %>%
  mutate(compounds = colnames(mat.content.scaled)) %>%
  rename(CorrelationWithPC1 = V1, CorrelationWithPC2 = V2) 
df.PC.var.correlation

## # A tibble: 21 x 3
##    CorrelationWithPC1 CorrelationWithPC2 compounds    
##                 <dbl>              <dbl> <chr>        
##  1             0.585             -0.642  leucine      
##  2             0.840             -0.314  isoleucine   
##  3             0.719              0.535  tryptophan   
##  4             0.908              0.277  phenylalanine
##  5             0.961             -0.0655 valine       
##  6             0.361             -0.497  methionine   
##  7             0.563              0.178  tyrosine     
##  8             0.595              0.234  proline      
##  9             0.269             -0.562  alanine      
## 10            -0.0490             0.576  cysteine     
## # … with 11 more rows
…
