Method Development & Validation
…
  # combine the expected level
  left_join(df.inj.conc.expected, by = c("compounds", "Level")) %>%
  
  # compute stats summary
  mutate(Accuracy = (conc.inj.mean - inj.conc.background.mean) / inj.conc.Spike.Expected * 100,
         Accuracy.sd = sqrt(conc.inj.sd^2 + inj.conc.background.sd^2) / inj.conc.Spike.Expected * 100 )

df.accuracy

## # A tibble: 147 x 15
## # Groups:   compounds [21]
##    compounds Level conc.inj.mean conc.inj.sd SpikeDiluteFact…
##    <chr>     <chr>         <dbl>       <dbl>            <dbl>
##  1 alanine   A/a           2189.       59.7               1.8
##  2 alanine   B/b           1625.       20.2               2.6
##  3 alanine   C/c            952.       21.9               5  
##  4 alanine   D/d            621.        7.28              9  
##  5 alanine   E/e            424.       10.7              17  
##  6 alanine   F/f            287.        3.98             41  
##  7 alanine   G/g            242.        7.79             81  
##  8 arginine  A/a           1590.       50.4               1.8
##  9 arginine  B/b           1082.       16.8               2.6
## 10 arginine  C/c            601.       13.4               5  
## # … with 137 more rows, and 10 more variables:
## #   BackgroundDiluteFactor <dbl>, `Stock.conc.ug/mL` <dbl>,
## #   QC.background.mean <dbl>, QC.background.sd <dbl>,
## #   QC.Spike.Expected <dbl>, inj.conc.background.mean <dbl>,
## #   inj.conc.background.sd <dbl>, inj.conc.Spike.Expected <dbl>,
## #   Accuracy <dbl>, Accuracy.sd <dbl>
…
At lower spike levels, the measurement variance of the background content contributes increasingly more to the overal accuracy dispersability, and quantification of a small spike amount into a high-level background could be easily interferenced by the background measurement volatility and thus rendered more challenging.

2.2.3 Matrix effects

# Matrix effect
df.matrix = df.inj.conc %>% filter(Purpose == "Matrix effect") %>%
  gather(-c(Purpose, Sample, Level), key = compounds, value = matrix.conc) %>%
  group_by(compounds, Level) %>%
  summarise(matrix.conc.mean = mean(matrix.conc),
            matrix.conc.sd = sd(matrix.conc))
df.matrix 

## # A tibble: 147 x 4
## # Groups:   compounds [21]
##    compounds Level matrix.conc.mean matrix.conc.sd
##    <chr>     <chr>            <dbl>          <dbl>
##  1 alanine   A/a             2107.           57.9 
##  2 alanine   B/b             1449.           60.6 
##  3 alanine   C/c              787.           28.1 
##  4 alanine   D/d              458.           26.9 
##  5 alanine   E/e              224.            5.44
##  6 alanine   F/f               61.0          25.1 
##  7 alanine   G/g               45.5           2.41
##  8 arginine  A/a             1558.           44.4 
##  9 arginine  B/b             1052.           46.9 
## 10 arginine  C/c              546.           11.8 
## # … with 137 more rows
…
# plt.matrixEffect

2.2.4 Precision

# Precision
df.precision = df.inj.conc %>% filter(Purpose == "Precision") %>%
  gather(-c(Purpose, Sample, Level), key = compounds, value = precision.conc) %>%
  group_by(compounds, Level) %>%
  summarise(precision.conc.mean = mean(precision.conc),
            precision.conc.sd = sd(precision.conc),
            precision = precision.conc.sd / precision.conc.mean * 100)

df.precision  

## # A tibble: 147 x 5
## # Groups:   compounds [21]
##    compounds Level precision.conc.mean precision.conc.sd precision
##    <chr>     <chr>               <dbl>             <dbl>     <dbl>
##  1 alanine   A/a                2081.             30.1       1.45 
##  2 alanine   B/b                1511.             29.2       1.93 
##  3 alanine   C/c                 740.              7.77      1.05 
##  4 alanine   D/d                 394.             10.5       2.66 
##  5 alanine   E/e                 214.              3.57      1.66 
##  6 alanine   F/f                  89.4             2.27      2.54 
##  7 alanine   G/g                  43.0             0.654     1.52 
##  8 arginine  A/a                1534.             14.2       0.926
##  9 arginine  B/b                1116.              7.68      0.689
## 10 arginine  C/c                 533.              4.22      0.791
## # … with 137 more rows
…
2.2.6 Summary table for key validation results

# clean up table for publication in supplementary material
df.accuracy.reportTable = df.accuracy %>% select(compounds, Level, Accuracy, Accuracy.sd) %>%
  mutate(Accuracy.all = paste(round(Accuracy, 1), "±", round(Accuracy.sd, 1))) %>%
  select(-c(Accuracy, Accuracy.sd)) %>% spread(Level, Accuracy.all)
df.accuracy.reportTable

## # A tibble: 21 x 8
## # Groups:   compounds [21]
##    compounds   `A/a`    `B/b`    `C/c`   `D/d`   `E/e`    `F/f`    `G/g`   
##    <chr>       <chr>    <chr>    <chr>   <chr>   <chr>    <chr>    <chr>   
##  1 alanine     108.1 ±… 111.7 ±… 113.4 … 114.6 … 115.8 ±… 110.7 ±… 108.3 ±…
##  2 arginine    109.9 ±… 106.2 ±… 108.4 … 109.4 … 111.6 ±… 114.3 ±… 108.4 ±…
##  3 asparagine  110.1 ±… 108.8 ±… 111 ± … 112.6 … 104.9 ±… 117.8 ±… 104.3 ±…
##  4 aspartic a… 116.9 ±… 115.6 ±… 114.9 … 110.7 … 111.6 ±… 108.4 ±… 98.7 ± …
##  5 cysteine    106.8 ±… 110.9 ±… 108.5 … 109.8 … 104.6 ±… 103.8 ±… 106.5 ±…
##  6 glutamic a… 102.8 ±… 95.3 ± … 93.3 ±… 96.7 ±… 92.6 ± … 93.1 ± … 75 ± 32…
##  7 glutamine   100.4 ±… 101.4 ±… 101.3 … 106.1 … 104.4 ±… 100.7 ±… 110.5 ±…
##  8 glycine     109.1 ±… 122.3 ±… 124.4 … 123.3 … 120.9 ±… 121.5 ±… 102.6 ±…
##  9 histidine   111.8 ±… 102.9 ±… 109.1 … 111 ± … 105.1 ±… 94.3 ± … 121.2 ±…
## 10 isoleucine  105.4 ±… 110.2 ±… 112.4 … 114.1 … 117.2 ±… 115.9 ±… 122.8 ±…
## # … with 11 more rows

df.matirx.reportTable = df.matrix %>% select(compounds, Level, matrixEffect, matrixEffect.sd) %>%
  mutate(matrixEffect = paste(round(matrixEffect, 1), "±", round(matrixEffect.sd, 1))) %>%
  select(-matrixEffect.sd) %>% spread(Level, matrixEffect)
df.matirx.reportTable         

## # A tibble: 21 x 8
## # Groups:   compounds [21]
##    compounds   `A/a`    `B/b`    `C/c`    `D/d`    `E/e`    `F/f`   `G/g`  
##    <chr>       <chr>    <chr>    <chr>    <chr>    <chr>    <chr>   <chr>  
##  1 alanine     99.7 ± … 103.8 ±… 100.9 ±… 97.4 ± … 106.4 ±… 155 ± … 102.7 …
##  2 arginine    100.4 ±… 99.6 ± … 101.9 ±… 97.4 ± … 104.6 ±… 126.8 … 99.8 ±…
##  3 asparagine  100.2 ±… 102.7 ±… 100.4 ±… 98 ± 7   97.8 ± … 111.7 … 116 ± …
##  4 aspartic a… 99.7 ± … 100.7 ±… 102.7 ±… 96.9 ± … 98.5 ± 5 104.8 … 101.2 …
##  5 cysteine    99.3 ± … 105.4 ±… 100.8 ±… 98 ± 5.8 97.6 ± … 139 ± … 107.3 …
##  6 glutamic a… 106.4 ±… 109.2 ±… 100.5 ±… 115.2 ±… 105.7 ±… 142.9 … 83.8 ±…
##  7 glutamine   100.9 ±… 102.9 ±… 101.4 ±… 103.3 ±… 103.6 ±… 120.9 … 124.8 …
##  8 glycine     98.3 ± … 111.6 ±… 106.8 ±… 100.4 ±… 109.9 ±… 130.1 … 110.1 …
##  9 histidine   102.2 ±… 94.7 ± … 102.1 ±… 100.8 ±… 96.6 ± … 126 ± … 82.9 ±…
## 10 isoleucine  97.2 ± … 101.3 ±… 101.1 ±… 96.4 ± 7 100.5 ±… 152.8 … 121 ± …
## # … with 11 more rows

df.precision.reportTable = df.precision %>% select(compounds, Level, precision) %>%
  spread(Level, precision)
df.precision.reportTable

## # A tibble: 21 x 8
## # Groups:   compounds [21]
##    compounds     `A/a` `B/b` `C/c` `D/d` `E/e` `F/f` `G/g`
##    <chr>         <dbl> <dbl> <dbl> <dbl> <dbl> <dbl> <dbl>
##  1 alanine       1.45  1.93  1.05  2.66   1.66  2.54  1.52
##  2 arginine      0.926 0.689 0.791 2.20   4.63  5.95  1.43
##  3 asparagine    1.75  2.19  0.848 4.14   3.88 15.3  10.4 
##  4 aspartic acid 1.68  2.29  2.25  7.58   5.99  9.89 26.9 
##  5 cysteine      0.874 1.69  1.40  1.11   2.47  7.20  6.09
##  6 glutamic acid 1.35  2.80  1.80  4.38   3.28 14.8   6.51
##  7 glutamine     1.45  1.64  0.951 1.21   3.82  7.98 12.0 
##  8 glycine       0.688 1.44  1.51  3.63   7.38  9.33 25.2 
##  9 histidine     1.19  0.876 1.18  3.57  11.4  20.3   9.39
## 10 isoleucine    2.34  1.70  2.40  0.901  2.00  2.76  5.34
## # … with 11 more rows
…
